{
    "page": [
             {
             "name": "campoTexto1",
             "type": "UICustomTextField",
             "x": 10,
             "y": 10,
             "w": 190,
             "h": 30,
             "style": "UITextBorderStyleRoundedRect",
             "validate": "email",
             "mandatory": 1,
             "placeholder": "introduzca un mail"
             },
             {
             "name": "campoTexto2",
             "type": "UICustomTextField",
             "x": 10,
             "y": 50,
             "w": 190,
             "h": 30,
             "style": "UITextBorderStyleRoundedRect",
             "placeholder": "introduzca un numero",
             "validate": "num",
             "mandatory": 1
             },
             {
             "name": "label1",
             "type": "UICustomLabel",
             "x": 10,
             "y": 90,
             "w": 180,
             "h": 40,
             "color": "FFOOOOO",
             "textcolor": "0000FF",
             "text": "Texto de label",
             "fontSize": 23
             },
             {
             "name": "firma1",
             "type": "PaintView",
             "x": 210,
             "y": 10,
             "w": 311,
             "h": 146,
             "mandatory": 1,
             "validate": "sign"
             },
             {
             "name": "labelStepper1",
             "type": "UILabelStepper",
             "x": 10,
             "y": 145,
             "w": 120,
             "h": 81,
             "mandatory": 1,
             "init":5,
             "title": "Cantidad",
             "subtitle": "[min. 5]",
             "biggerthan": 5,
             "validate": "value"
             },
             {
             "name": "slider1",
             "type": "UICustomSlider",
             "x": 150,
             "y": 170,
             "w": 300,
             "h": 50,
             "mandatory": 0,
             "max": 100,
             "min": 0,
             "validate": "value"
             },
             {
             "name": "dateSelector1",
             "type": "UICustomDatePicker",
             "x": 10,
             "y": 240,
             "w": 320,
             "h": 216,
             "mandatory": 0,
             "format": "fecha"
             },
             {
             "name": "labelSlider1",
             "type": "UILabelSlider",
             "x": 10,
             "y": 480,
             "w": 261,
             "h": 71,
             "mandatory": 0,
             "max": 100,
             "min": 0,
             "validate": "value"
             },
             {
             "name": "botonValidar",
             "type": "UICustomButton",
             "x": 800,
             "y": 661,
             "w": 82,
             "h": 37,
             "text": "Validar",
             "action":"validate"
             },
             {
             "name": "botonPDF",
             "type": "UICustomButton",
             "x": 900,
             "y": 661,
             "w": 82,
             "h": 37,
             "text": "PDF",
             "action":"generate"
             },
             {
             "name": "picker1",
             "type": "UICustomPickerView",
             "x": 550,
             "y": 10,
             "w": 170,
             "h": 180,
             "list": [
                      "Seleccione",
                      "Bulbasaur",
                      "Pikachu",
                      "Charmander",
                      "Squirtle"
                      ]
             },
             {
             "name":"pokemon",
             "type": "UICustomScrollTable",
             "x": 370,
             "y": 240,
             "w": 378,
             "h": 250,
             "formRow": 0,
             "columnNumber": 5,
             "heightRow":30,
             "columns": [
                         {
                         "type": "text",
                         "name": "Nombre",
                         "mandatory": "0",
                         "w": 72,
                         "position": 0
                         },
                         {
                         "type": "text",
                         "name": "Tipo",
                         "mandatory": "0",
                         "w": 72,
                         "position": 1
                         },
                         {
                         "type": "text",
                         "name": "Entrenador",
                         "mandatory": "0",
                         "w": 90,
                         "position": 2
                         },
                         {
                         "type": "text",
                         "name": "Especie",
                         "mandatory": "0",
                         "w": 72,
                         "position": 3
                         },
                         {
                         "type": "value",
                         "name": "Victorias",
                         "mandatory": "0",
                         "w": 72,
                         "position": 4
                         }
                         ]
             }
             ]
}